item,itemLabel,extracted,found in wikidata not in extracted,found in extracted not in wikidata
http://www.wikidata.org/entity/Q2489986,Benteng Meester Cornelis,Benteng Marlborough,Benteng Meester Cornelis,
http://www.wikidata.org/entity/Q2651405,Benteng Amsterdam,Benteng bermakna masyarakat Gorontalo teguh,,Benteng bermakna masyarakat Gorontalo teguh
http://www.wikidata.org/entity/Q4982061,Benteng Belgica,kukuh mempertahankan Harga diri,,kukuh mempertahankan Harga diri
http://www.wikidata.org/entity/Q47779,Benteng Fort de Kock,Benteng bermakna masyarakat Gorontalo teguh dan kukuh mempertahankan Harga diri,,Benteng bermakna masyarakat Gorontalo teguh dan kukuh mempertahankan Harga diri
http://www.wikidata.org/entity/Q5471595,Benteng Marlborough,Benteng Oranye Kwandang,,Benteng Oranye Kwandang
http://www.wikidata.org/entity/Q1954949,Benteng Oranje,Benteng Amsterdam,,
http://www.wikidata.org/entity/Q4873725,Benteng Pendem Ambarawa,Benteng Victoria,Benteng Pendem Ambarawa,Benteng Victoria
http://www.wikidata.org/entity/Q4262369,Benteng Pendem Cilacap,Benteng Belgica,Benteng Pendem Cilacap,
http://www.wikidata.org/entity/Q2382589,Benteng Van der Wijk,Benteng Titaley,,Benteng Titaley
http://www.wikidata.org/entity/Q13092092,Benteng Willem II Ungaran,Benteng Keraton Buton,Benteng Willem II Ungaran,Benteng Keraton Buton
http://www.wikidata.org/entity/Q1840552,Benteng Du Bus,Benteng Kerajaan Kabaena,Benteng Du Bus,Benteng Kerajaan Kabaena
http://www.wikidata.org/entity/Q29771,Benteng Rotterdam,Benteng York,Benteng Rotterdam,Benteng York
,,Benteng Otanaha,0,Benteng Otanaha
,,Benteng VOC,0,Benteng VOC
,,Benteng Van der Wijk,0,
,,benteng Belanda,0,benteng Belanda
,,Benteng Radin Imba Kusuma,0,Benteng Radin Imba Kusuma
,,Benteng Tujuh Lapis,0,Benteng Tujuh Lapis
,,Benteng Kuta Reh,0,Benteng Kuta Reh
,,Benteng Kuta Asan,0,Benteng Kuta Asan
,,Benteng Pendhem,0,Benteng Pendhem
,,Benteng Pendem Purworejo,0,Benteng Pendem Purworejo
,,Benteng Williem II,0,Benteng Williem II
,,Benteng sisa peninggalan Mataram Kuno,0,Benteng sisa peninggalan Mataram Kuno
,,Benteng ERFPRINS,0,Benteng ERFPRINS
,,Benteng Tjakraningrat IV Tanjoeng Piring,0,Benteng Tjakraningrat IV Tanjoeng Piring
,,Benteng Lodewijk Mengare,0,Benteng Lodewijk Mengare
,,Benteng Pertahanan Belanda,0,Benteng Pertahanan Belanda
,,Benteng Bukit Cening,0,Benteng Bukit Cening
,,Benteng Tanjung Cengkeh,0,Benteng Tanjung Cengkeh
,,Benteng Kuala Daik,0,Benteng Kuala Daik
,,Benteng Mepar Berbentuk segi Empat,0,Benteng Mepar Berbentuk segi Empat
,,Benteng Kubu Parit,0,Benteng Kubu Parit
,,Benteng Bernaveld Amasing,0,Benteng Bernaveld Amasing
,,Benteng Tolukko,0,Benteng Tolukko
,,Benteng Oranje,0,
,,Benteng Kalamata,0,Benteng Kalamata
,,Benteng Kota Naka,0,Benteng Kota Naka
,,Benteng Gam Lamo,0,Benteng Gam Lamo
,,Benteng Santo Pedro,0,Benteng Santo Pedro
,,Benteng Talagame,0,Benteng Talagame
,,Benteng Willyam Star,0,Benteng Willyam Star
,,Benteng Fort Concordia,0,Benteng Fort Concordia
,,Benteng tujuh lapis Dalu-dalu,0,Benteng tujuh lapis Dalu-dalu
,,Benteng Somba Opu,0,Benteng Somba Opu
,,Benteng Pertahanan PongTiku,0,Benteng Pertahanan PongTiku
,,Benteng Fort Rotterdam,0,Benteng Fort Rotterdam
,,Benteng Panyua,0,Benteng Panyua
,,Dinding benteng ini kukuh menjulang setinggi  meter,0,Dinding benteng ini kukuh menjulang setinggi  meter
,,Benteng,0,Benteng
,,Benteng Keraton Buton dan Masjid Agung Keraton,0,Benteng Keraton Buton dan Masjid Agung Keraton
,,Benteng Resort,0,Benteng Resort
,,Benteng Kuto Besak,0,Benteng Kuto Besak
,,Benteng Makassar,0,Benteng Makassar
,,Benteng Anna,0,Benteng Anna
,,benteng bukit danaraja,0,benteng bukit danaraja
,,pencu,0,pencu
,,Ngandagan,0,Ngandagan
,,Benteng Vastenburg peninggalan Belanda,0,Benteng Vastenburg peninggalan Belanda
,,Benteng van Den Bosch,0,Benteng van Den Bosch
,,Benteng Pancasila,0,Benteng Pancasila
,,Benteng Lama,0,Benteng Lama
,,Benteng Tundakan,0,Benteng Tundakan
,,Benteng Tabanio,0,Benteng Tabanio
,,Benteng Haji,0,Benteng Haji
,,Benteng Tatas,0,Benteng Tatas
,,Benteng Nossa Senhora da Anunciada,0,Benteng Nossa Senhora da Anunciada
,,Benteng Kota Laha,0,Benteng Kota Laha
,,Gubernur,0,Gubernur
,,Benteng Fort Henricus,0,Benteng Fort Henricus
,,Ibu,0,Ibu
,,Benteng Balangnipa,0,Benteng Balangnipa
,,Benteng Sanrobone,0,Benteng Sanrobone
,,Benteng Tosora,0,Benteng Tosora
,,Benteng Ujung Pandang sekarang,0,Benteng Ujung Pandang sekarang
,,benteng Ujung Pandang,0,benteng Ujung Pandang
,,benteng kerajaan Gowa,0,benteng kerajaan Gowa
,,Benteng Panynyua,0,Benteng Panynyua
,,benteng bekas peninggalan Kesultanan Buton,0,benteng bekas peninggalan Kesultanan Buton
,,benteng peninggalan kesultanan Buton,0,benteng peninggalan kesultanan Buton
,,Benteng Kota Bombonawulu,0,Benteng Kota Bombonawulu
,,Benteng Wasilomata,0,Benteng Wasilomata
,,Benteng Gumanano,0,Benteng Gumanano
,,Kulisusu,0,Kulisusu
,,Kalingsusu,0,Kalingsusu
,,benteng pertahanan Barata Patapalena,0,benteng pertahanan Barata Patapalena
,,Benteng Tindoi,0,Benteng Tindoi
,,Benteng Liya,0,Benteng Liya
,,Benteng Mandati Tonga,0,Benteng Mandati Tonga
,,Benteng Togo Molengo,0,Benteng Togo Molengo
,,BENTENG OLLO,0,BENTENG OLLO
,,BENTENG LA DONDA Benteng La Donda,0,BENTENG LA DONDA Benteng La Donda
,,Benteng Patua,0,Benteng Patua
,,Benteng Suo,0,Benteng Suo
,,Benteng Palahidu,0,Benteng Palahidu
,,Benteng Wali,0,Benteng Wali
,,benteng Fort de Kock,0,
