item,itemLabel,extracted,found in wikidata not in extracted,found in extracted not in wikidata
http://www.wikidata.org/entity/Q815602,Belida,Keris,Belida,Keris
http://www.wikidata.org/entity/Q1689481,Jimpul,Tombak,Jimpul,Tombak
http://www.wikidata.org/entity/Q19944873,Si Euli,Tiuk,Si Euli,Tiuk
http://www.wikidata.org/entity/Q798870,Badik,Taji,,Taji
,,Kandik,,Kandik
,,Caluk,,Caluk
,,Arit,,Arit
,,Udud,,Udud
,,Gelewang,,Gelewang
,,Trisula,,Trisula
,,Panah,,Panah
,,Penampad,,Penampad
,,Garot,,Garot
,,Tulud,,Tulud
,,Kis-Kis,,Kis-Kis
,,Anggapan,,Anggapan
,,Berang,,Berang
,,Blakas,,Blakas
,,Pengiris,,Pengiris
,,Pengutik,,Pengutik
,,Tah,,Tah
,,Wamilo,,Wamilo
,,Sabele,,Sabele
,,Travalla,,Travalla
,,Mandau,,Mandau
,,Gayang,,Gayang
,,Keris Buritkang,,Keris Buritkang
,,Sumpit,,Sumpit
,,Perisai,,Perisai
,,Parang bangka,,Parang bangka
,,Kedik,,Kedik
,,Siwar Panjang,,Siwar Panjang
,,Badik,,
,,Papporok,,Papporok
,,sikin panyang,,sikin panyang
,,peurise awe,,peurise awe
,,peurise,,peurise
,,siwah,,siwah
,,Sabel,,Sabel
,,kerambit,,kerambit
,,Minang,,Minang
,,Senapang Lantak,,Senapang Lantak
,,Nyabor,,Nyabor
,,Pedang,,Pedang
,,Jempol,,Jempol
,,Perisai untuk pertahanan diri,,Perisai untuk pertahanan diri
,,Kampilan,,Kampilan
,,Bacemman,,Bacemman
,,Sumpitan,,Sumpitan
